Final Exam
…
modpluserror=mod1$coefficients[[1]]+mod1$coefficients[[2]]*aric$bmi+mod1$residuals
a=tibble(modpluserror,log(aric$il6))
a

## # A tibble: 1,146 x 2
##    modpluserror `log(aric$il6)`
##           <dbl>           <dbl>
##  1        0.278           0.278
##  2        0.604           0.604
##  3        0.322           0.322
##  4        1.03            1.03 
##  5        0.542           0.542
##  6        1.22            1.22 
##  7        0.647           0.647
##  8        0.875           0.875
##  9        0.554           0.554
## 10        0.673           0.673
## # ... with 1,136 more rows
…
