BIOS 611 HW3 Exploratory Analysis, tibbles, and data import (Chapters 7, 10, and 11.2)
…
What does tibble::enframe() do? When might you use it?

(How can you simply generate a tibble of two vectors (1 2 3  26, a b c  z)?)

Answer: It converts named vectors to a tibble with names and values. You could use it when you need key value pairs, such as a dictionary.

enframe(letters[1:26])

## # A tibble: 26 x 2
##     name value
##    <int> <chr>
##  1     1 a    
##  2     2 b    
##  3     3 c    
##  4     4 d    
##  5     5 e    
##  6     6 f    
##  7     7 g    
##  8     8 h    
##  9     9 i    
## 10    10 j    
## # ... with 16 more rows
…
